{
    "cli": {
        "version": ">=1.0.0"
    },
    "build": {
        "development": {
            "developmentClient": true,
            "distribution": "internal",
            "cache": {
                "key": "Invalidate"
            }
        },
        "preview": {
            "distribution": "internal",
            "cache": {
                "key": "Invalidate"
            }
        },
        "preview_simulator": {
            "ios": {
                "simulator": true
            }
        },
        "preview-enterprise": {
            "distribution": "internal",
            "ios": {
                "enterpriseProvisioning": "adhoc"
            },
            "android": {
                "buildType": "apk"
            },
            "cache": {
                "key": "Invalidate"
            }
        },
        "production": {}
    },
    "submit": {
        "production": {}
    }
}
